<?xml version="1.0" encoding="UTF-8"?>
<svg xmlns="http://www.w3.org/2000/svg" xmlns:xlink="http://www.w3.org/1999/xlink" width="20px" height="25px" viewBox="0 0 20 25" version="1.1">
    
    <title>27C47B6D-CEF2-446C-9719-E58B14AFD480</title>
    <desc>Created with sketchtool.</desc>
    <g id="Education-Providers-Page" stroke="none" stroke-width="1" fill="none" fill-rule="evenodd">
        <g id="Provider-Profiles-Default-Desktop" transform="translate(-150.000000, -527.000000)">
            <g id="Group-12" transform="translate(150.000000, 527.000000)">
                <polygon id="Clip-2" points="0.000147058825 0 20 0 20 25 0.000147058825 25"/>
                <path d="M18.5295588,1.47058824 L18.5295588,23.5294118 L1.47073529,23.5294118 L1.47073529,1.47058824 L5.14720588,1.47058824 L5.29426471,1.91176471 L5.66191176,3.89705882 L5.8825,4.55882353 L13.8236765,4.55882353 L14.0442647,3.89705882 L14.4119118,1.91176471 L14.5589706,1.47058824 L18.5295588,1.47058824 Z M6.61779412,1.47058824 L8.01485294,1.47058824 C8.08838235,1.83823529 8.3825,2.20588235 8.75014706,2.20588235 L10.9560294,2.20588235 C11.3236765,2.20588235 11.6177941,1.83823529 11.6913235,1.47058824 L13.0883824,1.47058824 L12.7942647,3.08823529 L6.98544118,3.08823529 L6.61779412,1.47058824 Z M19.2648529,0 L0.735441176,0 C0.367794118,0 0.000147058825,0.294117647 0.000147058825,0.735294118 L0.000147058825,24.2647059 C0.000147058825,24.6323529 0.294264706,25 0.735441176,25 L19.2648529,25 C19.6325,25 20.0001471,24.7058824 20.0001471,24.2647059 L20.0001471,0.735294118 C20.0001471,0.294117647 19.7060294,0 19.2648529,0 L19.2648529,0 Z" id="Fill-1" fill="#8DC63F"/>
                <path d="M9.63242647,8.38227941 C9.63242647,8.74992647 9.92654412,9.11757353 10.3677206,9.11757353 L15.2941912,9.11757353 C15.6618382,9.11757353 16.0294853,8.82345588 16.0294853,8.38227941 C16.0294853,7.94110294 15.7353676,7.64698529 15.2941912,7.64698529 L10.3677206,7.64698529 C10.0000735,7.72051471 9.63242647,8.01463235 9.63242647,8.38227941" id="Fill-4" fill="#8DC63F"/>
                <path d="M15.2939706,13.1616912 L10.3675,13.1616912 C9.99985294,13.1616912 9.63220588,13.4558088 9.63220588,13.8969853 C9.63220588,14.2646324 9.92632353,14.6322794 10.3675,14.6322794 L15.2939706,14.6322794 C15.6616176,14.6322794 16.0292647,14.3381618 16.0292647,13.8969853 C16.0292647,13.5293382 15.7351471,13.1616912 15.2939706,13.1616912" id="Fill-6" fill="#8DC63F"/>
                <path d="M15.2939706,18.6763971 L10.3675,18.6763971 C9.99985294,18.6763971 9.63220588,18.9705147 9.63220588,19.4116912 C9.63220588,19.7793382 9.92632353,20.1469853 10.3675,20.1469853 L15.2939706,20.1469853 C15.6616176,20.1469853 16.0292647,19.8528676 16.0292647,19.4116912 C16.0292647,18.9705147 15.7351471,18.6763971 15.2939706,18.6763971" id="Fill-8" fill="#8DC63F"/>
                <path d="M4.92661765,10.0736765 C5.07367647,10.2207353 5.29426471,10.2942647 5.51485294,10.2942647 C5.73544118,10.2942647 5.95602941,10.2207353 6.10308824,10.0736765 L8.45602941,7.72073529 C8.60308824,7.57367647 8.67661765,7.35308824 8.67661765,7.1325 C8.67661765,6.91191176 8.60308824,6.69132353 8.45602941,6.54426471 C8.30897059,6.39720588 8.08838235,6.32367647 7.86779412,6.32367647 C7.64720588,6.32367647 7.50014706,6.39720588 7.35308824,6.54426471 L5.58838235,8.30897059 L5.00014706,7.72073529 C4.70602941,7.42661765 4.19132353,7.42661765 3.89720588,7.72073529 C3.60308824,8.01485294 3.60308824,8.52955882 3.89720588,8.82367647 L4.92661765,10.0736765 Z" id="Fill-11" fill="#8DC63F"/>
                <path d="M7.27933824,12.1323529 L5.51463235,13.8970588 L4.92639706,13.3088235 C4.63227941,13.0147059 4.11757353,13.0147059 3.82345588,13.3088235 C3.52933824,13.6029412 3.52933824,14.1176471 3.82345588,14.4117647 L4.99992647,15.5882353 C5.14698529,15.7352941 5.36757353,15.8088235 5.58816176,15.8088235 C5.80875,15.8088235 6.02933824,15.7352941 6.17639706,15.5882353 L8.52933824,13.2352941 C8.67639706,13.0882353 8.74992647,12.8676471 8.74992647,12.6470588 C8.74992647,12.4264706 8.67639706,12.2058824 8.52933824,12.0588235 C8.08816176,11.8382353 7.57345588,11.8382353 7.27933824,12.1323529" id="Fill-13" fill="#8DC63F"/>
                <path d="M7.27933824,17.5734559 L5.51463235,19.3381618 L4.92639706,18.7499265 C4.77933824,18.6028676 4.55875,18.5293382 4.33816176,18.5293382 C4.11757353,18.5293382 3.89698529,18.6028676 3.74992647,18.7499265 C3.45580882,19.0440441 3.45580882,19.55875 3.74992647,19.8528676 L4.92639706,21.0293382 C5.07345588,21.1763971 5.29404412,21.2499265 5.51463235,21.2499265 C5.73522059,21.2499265 5.95580882,21.1763971 6.10286765,21.0293382 L8.45580882,18.6763971 C8.60286765,18.5293382 8.67639706,18.30875 8.67639706,18.0881618 C8.67639706,17.8675735 8.60286765,17.6469853 8.45580882,17.4999265 C8.08816176,17.2793382 7.57345588,17.2793382 7.27933824,17.5734559" id="Fill-15" fill="#8DC63F"/>
                <g id="Group-17">
                    <g id="Group-10">
                        <g id="Group-3"/>
                    </g>
                </g>
            </g>
        </g>
    </g>
</svg>
