<?xml version="1.0" encoding="UTF-8"?>
<svg xmlns="http://www.w3.org/2000/svg" xmlns:xlink="http://www.w3.org/1999/xlink" width="30px" height="30px" viewBox="0 0 30 30" version="1.1">
    
    <title>6B0D414F-DD94-49DB-885D-7584157ABBC1</title>
    <desc>Created with sketchtool.</desc>
    <g id="Education-Providers-Page" stroke="none" stroke-width="1" fill="none" fill-rule="evenodd">
        <g id="Provider-Profiles-Default-Desktop" transform="translate(-455.000000, -156.000000)" fill="#8DC63F">
            <polygon id="Fill-1-3" points="470 156 466.25 165.375 455 165.375 462.5 174.75 458.75 186 470 179.4375 481.250059 186 477.500059 174.75 485 165.375 473.750059 165.375"/>
        </g>
    </g>
</svg>
